{
  "products": [
    {
      "elected": false,
      "image": "images/dynamic/itm-1.jpg",
      "name": "Студия №1",
      "decor": "без отделки",
      "area": "28",
      "floor": "12/14",
      "price": 1900000,
      "status": [
        "booked",
        "Забронировано"
      ],
      "sale": [
        "-9%",
        "Шок цена!"
      ],
      "rooms": 1
    },
    {
      "elected": true,
      "image": "images/dynamic/itm-2.jpg",
      "name": "Пятикомнатная №2",
      "decor": "черновая отделка",
      "area": "34",
      "floor": "4/21",
      "price": 13400000,
      "status": [
        "free",
        "Свободно"
      ],
      "sale": [
        "-5%"
      ],
      "rooms": 5
    },
    {
      "elected": false,
      "image": "images/dynamic/itm-3.jpg",
      "name": "Трехкомнатная №3",
      "decor": "базовая отделка",
      "area": "48",
      "floor": "18/25",
      "price": 4999999,
      "status": [
        "sales",
        "Продано"
      ],
      "rooms": 3
    },
    {
      "elected": true,
      "image": "images/dynamic/itm-4.jpg",
      "name": "Двухкомнатная №4",
      "decor": "черновая отделка",
      "area": "34",
      "floor": "4/21",
      "price": 3200000,
      "status": [
        "free",
        "Свободно"
      ],
      "sale": [
        "-5%"
      ],
      "rooms": 2
    },
    {
      "elected": true,
      "image": "images/dynamic/itm-5.jpg",
      "name": "Двухкомнатная №5",
      "decor": "черновая отделка",
      "area": "34",
      "floor": "4/21",
      "price": 1500000,
      "status": [
        "free",
        "Свободно"
      ],
      "sale": [
        "-5%"
      ],
      "rooms": 2
    },
    {
      "elected": true,
      "image": "images/dynamic/itm-6.jpg",
      "name": "Трехкомнатная №6",
      "decor": "базовая отделка",
      "area": "34",
      "floor": "4/21",
      "price": 1200000,
      "status": [
        "sales",
        "Продано"
      ],
      "sale": [
        "-5%"
      ],
      "rooms": 3
    },
    {
      "elected": true,
      "image": "images/dynamic/itm-7.jpg",
      "name": "Двухкомнатная №7",
      "decor": "черновая отделка",
      "area": "34",
      "floor": "1/25",
      "price": 10500000,
      "status": [
        "free",
        "Свободно"
      ],
      "sale": [
        "-5%"
      ],
      "rooms": 2
    },
    {
      "elected": true,
      "image": "images/dynamic/itm-8.jpg",
      "name": "Четырехкомнатная №8",
      "decor": "базовая отделка",
      "area": "34",
      "floor": "11/21",
      "price": 7550000,
      "status": [
        "sales",
        "Продано"
      ],
      "sale": [
        "-5%"
      ],
      "rooms": 4
    },
    {
      "elected": true,
      "image": "images/dynamic/itm-9.jpg",
      "name": "Двухкомнатная №9",
      "decor": "черновая отделка",
      "area": "34",
      "floor": "32/46",
      "price": 400000,
      "status": [
        "booked",
        "Забронировано"
      ],
      "sale": [
        "-8%"
      ],
      "rooms": 2
    },
    {
      "elected": true,
      "image": "images/dynamic/itm-10.jpg",
      "name": "Четырехкомнатная №10",
      "decor": "черновая отделка",
      "area": "34",
      "floor": "18/21",
      "price": 4500000,
      "status": [
        "booked",
        "Забронировано"
      ],
      "rooms": 4
    },
    {
      "elected": false,
      "image": "images/dynamic/itm-11.jpg",
      "name": "Двухкомнатная №11",
      "decor": "базовая отделка",
      "area": "34",
      "floor": "2/21",
      "price": 1800000,
      "status": [
        "free",
        "Свободно"
      ],
      "rooms": 2
    },
    {
      "elected": false,
      "image": "images/dynamic/itm-12.jpg",
      "name": "Трехкомнатная №12",
      "decor": "черновая отделка",
      "area": "34",
      "floor": "21/21",
      "price": 3350000,
      "status": [
        "booked",
        "Забронировано"
      ],
      "sale": [
        "-15%",
        "Акция!"
      ],
      "rooms": 3
    }
  ]
}